{
  "chain_id": "NetXdQprcVkpaWU",
  "hash": "BLaBNMGiCAp9N3szDCyrBxmYFwP32tDeH3VYEDiQCUGQU9kan67",
  "header": {
    "context": "CoVWeDQfY5iin2j9AvXtZNgxk9jX9n7qMpSDAKSZTYXqQNGu2VT5",
    "fitness": [
      "01",
      "000000000008a630"
    ],
    "level": 1222192,
    "operations_hash": "LLoZMNCRfuDSsAUo9tyRDBViih9qZcqUAor6heuCdVc3nhWTMCzFk",
    "predecessor": "BLJdVust7SWKzShmbdV3TV3VZXsLynPS1rPKExjtcY4ReVTZTiv",
    "priority": 0,
    "proof_of_work_nonce": "e69b63f1dfb20100",
    "proto": 7,
    "signature": "siguXzAnisWUniyePdP6HLPjo8pfru8c2RnSSzcgBevw4Hh4Fj9go9SmfHDXqrjHjEB2K1UZvtAgtPeUirGuZnzhLu3SC5Es",
    "timestamp": "2020-11-19T12:41:50Z",
    "validation_pass": 4
  },
  "metadata": {
    "baker": "tz3NExpXn9aPNZPorRE4SdjJ2RGrfbJgMAaV",
    "balance_updates": [
      {
        "change": "-512000000",
        "contract": "tz3NExpXn9aPNZPorRE4SdjJ2RGrfbJgMAaV",
        "kind": "contract"
      },
      {
        "category": "deposits",
        "change": "512000000",
        "cycle": 298,
        "delegate": "tz3NExpXn9aPNZPorRE4SdjJ2RGrfbJgMAaV",
        "kind": "freezer"
      },
      {
        "category": "rewards",
        "change": "40000000",
        "cycle": 298,
        "delegate": "tz3NExpXn9aPNZPorRE4SdjJ2RGrfbJgMAaV",
        "kind": "freezer"
      }
    ],
    "consumed_gas": "6425559",
    "deactivated": [],
    "level": {
      "cycle": 298,
      "cycle_position": 1583,
      "expected_commitment": false,
      "level": 1222192,
      "level_position": 1222191,
      "voting_period": 37,
      "voting_period_position": 9775
    },
    "max_block_header_length": 238,
    "max_operation_data_length": 16384,
    "max_operation_list_length": [
      {
        "max_op": 32,
        "max_size": 32768
      },
      {
        "max_size": 32768
      },
      {
        "max_op": 132,
        "max_size": 135168
      },
      {
        "max_size": 524288
      }
    ],
    "max_operations_ttl": 60,
    "next_protocol": "PsDELPH1Kxsxt8f9eWbxQeRxkjfbxoqM52jvs5Y5fBxWWh4ifpo",
    "nonce_hash": null,
    "protocol": "PsDELPH1Kxsxt8f9eWbxQeRxkjfbxoqM52jvs5Y5fBxWWh4ifpo",
    "test_chain_status": {
      "status": "not_running"
    },
    "voting_period_kind": "proposal"
  },
  "operations": [
    [
      {
        "branch": "BLJdVust7SWKzShmbdV3TV3VZXsLynPS1rPKExjtcY4ReVTZTiv",
        "chain_id": "NetXdQprcVkpaWU",
        "contents": [
          {
            "kind": "endorsement",
            "level": 1222191,
            "metadata": {
              "balance_updates": [
                {
                  "change": "-64000000",
                  "contract": "tz1LBEKXaxQbd5Gtzbc1ATCwc3pppu81aWGc",
                  "kind": "contract"
                },
                {
                  "category": "deposits",
                  "change": "64000000",
                  "cycle": 298,
                  "delegate": "tz1LBEKXaxQbd5Gtzbc1ATCwc3pppu81aWGc",
                  "kind": "freezer"
                },
                {
                  "category": "rewards",
                  "change": "1250000",
                  "cycle": 298,
                  "delegate": "tz1LBEKXaxQbd5Gtzbc1ATCwc3pppu81aWGc",
                  "kind": "freezer"
                }
              ],
              "delegate": "tz1LBEKXaxQbd5Gtzbc1ATCwc3pppu81aWGc",
              "slots": [
                13
              ]
            }
          }
        ],
        "hash": "op9mguiWqpztLgRT6UdVGEKtfXrFXuzf1GqkmD1XQWjrfgKHfeA",
        "protocol": "PsDELPH1Kxsxt8f9eWbxQeRxkjfbxoqM52jvs5Y5fBxWWh4ifpo",
        "signature": "sighiqaxGfS2SxQ1vqPtvFmbvXGT34nQmQeY3oFZFjBYxx1aG5FtmF8mZTAQNMSjwXFgShK9s7VDqEzvMa2q31tshfHetrNY"
      },
      {
        "branch": "BLJdVust7SWKzShmbdV3TV3VZXsLynPS1rPKExjtcY4ReVTZTiv",
        "chain_id": "NetXdQprcVkpaWU",
        "contents": [
          {
            "kind": "endorsement",
            "level": 1222191,
            "metadata": {
              "balance_updates": [
                {
                  "change": "-128000000",
                  "contract": "tz1UuQ4HWDu3ALNRgAq94dX9MhqhQhnuY3gC",
                  "kind": "contract"
                },
                {
                  "category": "deposits",
                  "change": "128000000",
                  "cycle": 298,
                  "delegate": "tz1UuQ4HWDu3ALNRgAq94dX9MhqhQhnuY3gC",
                  "kind": "freezer"
                },
                {
                  "category": "rewards",
                  "change": "2500000",
                  "cycle": 298,
                  "delegate": "tz1UuQ4HWDu3ALNRgAq94dX9MhqhQhnuY3gC",
                  "kind": "freezer"
                }
              ],
              "delegate": "tz1UuQ4HWDu3ALNRgAq94dX9MhqhQhnuY3gC",
              "slots": [
                21,
                6
              ]
            }
          }
        ],
        "hash": "op6pqNyfSj3RBmB3M6ttQFiEAaZbsDwAjGdwBqcbMyzV7svaE72",
        "protocol": "PsDELPH1Kxsxt8f9eWbxQeRxkjfbxoqM52jvs5Y5fBxWWh4ifpo",
        "signature": "sigh9DpBx1aJpBUMpJ5UhKXu5P7caT28fuYmnXk8vzdUrsogEvZyLKqRoqL4F5nJQvJNA4rhMi8qEUP8VAqU7pJNw3EX86pb"
      },
      {
        "branch": "BLJdVust7SWKzShmbdV3TV3VZXsLynPS1rPKExjtcY4ReVTZTiv",
        "chain_id": "NetXdQprcVkpaWU",
        "contents": [
          {
            "kind": "endorsement",
            "level": 1222191,
            "metadata": {
              "balance_updates": [
                {
                  "change": "-64000000",
                  "contract": "tz1Scdr2HsZiQjc7bHMeBbmDRXYVvdhjJbBh",
                  "kind": "contract"
                },
                {
                  "category": "deposits",
                  "change": "64000000",
                  "cycle": 298,
                  "delegate": "tz1Scdr2HsZiQjc7bHMeBbmDRXYVvdhjJbBh",
                  "kind": "freezer"
                },
                {
                  "category": "rewards",
                  "change": "1250000",
                  "cycle": 298,
                  "delegate": "tz1Scdr2HsZiQjc7bHMeBbmDRXYVvdhjJbBh",
                  "kind": "freezer"
                }
              ],
              "delegate": "tz1Scdr2HsZiQjc7bHMeBbmDRXYVvdhjJbBh",
              "slots": [
                29
              ]
            }
          }
        ],
        "hash": "ooHKe81CpsEcLLtoegetmgtUeDhC9VUuhcH83r1b3yiocx7FSe7",
        "protocol": "PsDELPH1Kxsxt8f9eWbxQeRxkjfbxoqM52jvs5Y5fBxWWh4ifpo",
        "signature": "sigj9XHZc4PKdFQTCdnWCtt7fN29BjTjnkvNcVDFW2Gk5dPh8pV1H99UbjHSS1RZzj38SiukS9EacEXK5SrW3jjWrLd81m24"
      },
      {
        "branch": "BLJdVust7SWKzShmbdV3TV3VZXsLynPS1rPKExjtcY4ReVTZTiv",
        "chain_id": "NetXdQprcVkpaWU",
        "contents": [
          {
            "kind": "endorsement",
            "level": 1222191,
            "metadata": {
              "balance_updates": [
                {
                  "change": "-64000000",
                  "contract": "tz1bkKTY9Y3rTsHbpr2fbGUCRm736LLquQfM",
                  "kind": "contract"
                },
                {
                  "category": "deposits",
                  "change": "64000000",
                  "cycle": 298,
                  "delegate": "tz1bkKTY9Y3rTsHbpr2fbGUCRm736LLquQfM",
                  "kind": "freezer"
                },
                {
                  "category": "rewards",
                  "change": "1250000",
                  "cycle": 298,
                  "delegate": "tz1bkKTY9Y3rTsHbpr2fbGUCRm736LLquQfM",
                  "kind": "freezer"
                }
              ],
              "delegate": "tz1bkKTY9Y3rTsHbpr2fbGUCRm736LLquQfM",
              "slots": [
                25
              ]
            }
          }
        ],
        "hash": "ooWHW2TCL8MDQsqtE8roXq5Ebo5E7oCV9p1fXRwNTUvr2mAQxjV",
        "protocol": "PsDELPH1Kxsxt8f9eWbxQeRxkjfbxoqM52jvs5Y5fBxWWh4ifpo",
        "signature": "sigg5gv8u2ECKnQqjef68RYshXFKN2n4uZ1VNcPC5n4XCtKBkEo4Z8ARY499uvShDKq9UEu3K2HhkbDa4RENH21Cqk9Jjiwu"
      },
      {
        "branch": "BLJdVust7SWKzShmbdV3TV3VZXsLynPS1rPKExjtcY4ReVTZTiv",
        "chain_id": "NetXdQprcVkpaWU",
        "contents": [
          {
            "kind": "endorsement",
            "level": 1222191,
            "metadata": {
              "balance_updates": [
                {
                  "change": "-64000000",
                  "contract": "tz1W3VYi3gSt9Xgfw6WNV1aGZRPH2BsskMEY",
                  "kind": "contract"
                },
                {
                  "category": "deposits",
                  "change": "64000000",
                  "cycle": 298,
                  "delegate": "tz1W3VYi3gSt9Xgfw6WNV1aGZRPH2BsskMEY",
                  "kind": "freezer"
                },
                {
                  "category": "rewards",
                  "change": "1250000",
                  "cycle": 298,
                  "delegate": "tz1W3VYi3gSt9Xgfw6WNV1aGZRPH2BsskMEY",
                  "kind": "freezer"
                }
              ],
              "delegate": "tz1W3VYi3gSt9Xgfw6WNV1aGZRPH2BsskMEY",
              "slots": [
                7
              ]
            }
          }
        ],
        "hash": "oomjGUXTJCsXHV4uHHjsKZUjP9zhr6SsZ9NsaVoMwYQ2dmj6gRF",
        "protocol": "PsDELPH1Kxsxt8f9eWbxQeRxkjfbxoqM52jvs5Y5fBxWWh4ifpo",
        "signature": "sigvydH4QKVY22n6ZGSiMZCv1vjPFxSmkibQCQabiWtiMe9Kk1KrzU8JDhW3hgHxXy2kRkPX7aZ3WC1tiDpUQ7hVZujDEi8A"
      },
      {
        "branch": "BLJdVust7SWKzShmbdV3TV3VZXsLynPS1rPKExjtcY4ReVTZTiv",
        "chain_id": "NetXdQprcVkpaWU",
        "contents": [
          {
            "kind": "endorsement",
            "level": 1222191,
            "metadata": {
              "balance_updates": [
                {
                  "change": "-64000000",
                  "contract": "tz1LwEsi8GVhtpCcxBHgQAgM4XrdjsJLmYc8",
                  "kind": "contract"
                },
                {
                  "category": "deposits",
                  "change": "64000000",
                  "cycle": 298,
                  "delegate": "tz1LwEsi8GVhtpCcxBHgQAgM4XrdjsJLmYc8",
                  "kind": "freezer"
                },
                {
                  "category": "rewards",
                  "change": "1250000",
                  "cycle": 298,
                  "delegate": "tz1LwEsi8GVhtpCcxBHgQAgM4XrdjsJLmYc8",
                  "kind": "freezer"
                }
              ],
              "delegate": "tz1LwEsi8GVhtpCcxBHgQAgM4XrdjsJLmYc8",
              "slots": [
                23
              ]
            }
          }
        ],
        "hash": "opSuiyJUmUKH5BXVi5ZqbrucUirHEvTg6wGjTrS2jixXMJuBaCh",
        "protocol": "PsDELPH1Kxsxt8f9eWbxQeRxkjfbxoqM52jvs5Y5fBxWWh4ifpo",
        "signature": "sigfFiFfTbQCx5gru7aPodEGqfPiynjVTUUnZpX3Hku6S8gnUNBQmq7roJ9E5ddVaB3yK3pSU21JUoabdkWQmK5TZJwj4bck"
      },
      {
        "branch": "BLJdVust7SWKzShmbdV3TV3VZXsLynPS1rPKExjtcY4ReVTZTiv",
        "chain_id": "NetXdQprcVkpaWU",
        "contents": [
          {
            "kind": "endorsement",
            "level": 1222191,
            "metadata": {
              "balance_updates": [
                {
                  "change": "-192000000",
                  "contract": "tz1gfArv665EUkSg2ojMBzcbfwuPxAvqPvjo",
                  "kind": "contract"
                },
                {
                  "category": "deposits",
                  "change": "192000000",
                  "cycle": 298,
                  "delegate": "tz1gfArv665EUkSg2ojMBzcbfwuPxAvqPvjo",
                  "kind": "freezer"
                },
                {
                  "category": "rewards",
                  "change": "3750000",
                  "cycle": 298,
                  "delegate": "tz1gfArv665EUkSg2ojMBzcbfwuPxAvqPvjo",
                  "kind": "freezer"
                }
              ],
              "delegate": "tz1gfArv665EUkSg2ojMBzcbfwuPxAvqPvjo",
              "slots": [
                19,
                12,
                11
              ]
            }
          }
        ],
        "hash": "ontNnskcsTcgoWBtatySY9TJJbHhLB6rsZMJHErKHJ4nQ8be2Cz",
        "protocol": "PsDELPH1Kxsxt8f9eWbxQeRxkjfbxoqM52jvs5Y5fBxWWh4ifpo",
        "signature": "sigUKvxoCEMzAPRqyVp3DcCTKqqKsPUR18MmeyxWvBDa6R1vDpQ2wQiDiDUNaam9PFHyFH4LJb6dKLsNmGqLZFHixdVyQmJw"
      },
      {
        "branch": "BLJdVust7SWKzShmbdV3TV3VZXsLynPS1rPKExjtcY4ReVTZTiv",
        "chain_id": "NetXdQprcVkpaWU",
        "contents": [
          {
            "kind": "endorsement",
            "level": 1222191,
            "metadata": {
              "balance_updates": [
                {
                  "change": "-64000000",
                  "contract": "tz1aRoaRhSpRYvFdyvgWLL6TGyRoGF51wDjM",
                  "kind": "contract"
                },
                {
                  "category": "deposits",
                  "change": "64000000",
                  "cycle": 298,
                  "delegate": "tz1aRoaRhSpRYvFdyvgWLL6TGyRoGF51wDjM",
                  "kind": "freezer"
                },
                {
                  "category": "rewards",
                  "change": "1250000",
                  "cycle": 298,
                  "delegate": "tz1aRoaRhSpRYvFdyvgWLL6TGyRoGF51wDjM",
                  "kind": "freezer"
                }
              ],
              "delegate": "tz1aRoaRhSpRYvFdyvgWLL6TGyRoGF51wDjM",
              "slots": [
                14
              ]
            }
          }
        ],
        "hash": "onfugTsQkVe9ayYP9DPHpnbjUU7fjjDKCRHJen5jWqaTaU3FAAC",
        "protocol": "PsDELPH1Kxsxt8f9eWbxQeRxkjfbxoqM52jvs5Y5fBxWWh4ifpo",
        "signature": "sigcJzuFrMUKtTWcRWy8KSqEDfvzDxtBfTbYCn9p8EQEBZmWcdaHLqF5eHrwJQtWbhPwR1mQkzK4zbRpfjHQzgyTwRfxie1y"
      },
      {
        "branch": "BLJdVust7SWKzShmbdV3TV3VZXsLynPS1rPKExjtcY4ReVTZTiv",
        "chain_id": "NetXdQprcVkpaWU",
        "contents": [
          {
            "kind": "endorsement",
            "level": 1222191,
            "metadata": {
              "balance_updates": [
                {
                  "change": "-64000000",
                  "contract": "tz1Ldzz6k1BHdhuKvAtMRX7h5kJSMHESMHLC",
                  "kind": "contract"
                },
                {
                  "category": "deposits",
                  "change": "64000000",
                  "cycle": 298,
                  "delegate": "tz1Ldzz6k1BHdhuKvAtMRX7h5kJSMHESMHLC",
                  "kind": "freezer"
                },
                {
                  "category": "rewards",
                  "change": "1250000",
                  "cycle": 298,
                  "delegate": "tz1Ldzz6k1BHdhuKvAtMRX7h5kJSMHESMHLC",
                  "kind": "freezer"
                }
              ],
              "delegate": "tz1Ldzz6k1BHdhuKvAtMRX7h5kJSMHESMHLC",
              "slots": [
                26
              ]
            }
          }
        ],
        "hash": "oopDi7gtCM7AStYUvDaEfHCK63z9TJyqZaR567UwZkatKENrv4V",
        "protocol": "PsDELPH1Kxsxt8f9eWbxQeRxkjfbxoqM52jvs5Y5fBxWWh4ifpo",
        "signature": "sigSdbyeyrxmehXGGdMX5g7GJUAPEnb5iG8ekM3VSVwHJ82xaidjR2RRwyYcTQzqWNY2efm7XuwaddC6tphZsYJNVuBaM1kQ"
      },
      {
        "branch": "BLJdVust7SWKzShmbdV3TV3VZXsLynPS1rPKExjtcY4ReVTZTiv",
        "chain_id": "NetXdQprcVkpaWU",
        "contents": [
          {
            "kind": "endorsement",
            "level": 1222191,
            "metadata": {
              "balance_updates": [
                {
                  "change": "-128000000",
                  "contract": "tz2FCNBrERXtaTtNX6iimR1UJ5JSDxvdHM93",
                  "kind": "contract"
                },
                {
                  "category": "deposits",
                  "change": "128000000",
                  "cycle": 298,
                  "delegate": "tz2FCNBrERXtaTtNX6iimR1UJ5JSDxvdHM93",
                  "kind": "freezer"
                },
                {
                  "category": "rewards",
                  "change": "2500000",
                  "cycle": 298,
                  "delegate": "tz2FCNBrERXtaTtNX6iimR1UJ5JSDxvdHM93",
                  "kind": "freezer"
                }
              ],
              "delegate": "tz2FCNBrERXtaTtNX6iimR1UJ5JSDxvdHM93",
              "slots": [
                9,
                1
              ]
            }
          }
        ],
        "hash": "ooqoTpHEbMtrwAbV44JTpKufw7mXW1oGS9A93PgQoWzbbBaJTDK",
        "protocol": "PsDELPH1Kxsxt8f9eWbxQeRxkjfbxoqM52jvs5Y5fBxWWh4ifpo",
        "signature": "sigjA4cFU9xupC4j2pV3XtNob3UjzVVDWWBasU6S34av2Z1QukC4tKuuz1b753Lu24TYvaDmJNsWmXk8Qzijb8tSrJ5tJYSw"
      },
      {
        "branch": "BLJdVust7SWKzShmbdV3TV3VZXsLynPS1rPKExjtcY4ReVTZTiv",
        "chain_id": "NetXdQprcVkpaWU",
        "contents": [
          {
            "kind": "endorsement",
            "level": 1222191,
            "metadata": {
              "balance_updates": [
                {
                  "change": "-128000000",
                  "contract": "tz1irJKkXS2DBWkU1NnmFQx1c1L7pbGg4yhk",
                  "kind": "contract"
                },
                {
                  "category": "deposits",
                  "change": "128000000",
                  "cycle": 298,
                  "delegate": "tz1irJKkXS2DBWkU1NnmFQx1c1L7pbGg4yhk",
                  "kind": "freezer"
                },
                {
                  "category": "rewards",
                  "change": "2500000",
                  "cycle": 298,
                  "delegate": "tz1irJKkXS2DBWkU1NnmFQx1c1L7pbGg4yhk",
                  "kind": "freezer"
                }
              ],
              "delegate": "tz1irJKkXS2DBWkU1NnmFQx1c1L7pbGg4yhk",
              "slots": [
                31,
                22
              ]
            }
          }
        ],
        "hash": "oo9ti98E7Z5xx1TDZpG5ypijJg3GsPhousRWdWTwuERhDYuEKMN",
        "protocol": "PsDELPH1Kxsxt8f9eWbxQeRxkjfbxoqM52jvs5Y5fBxWWh4ifpo",
        "signature": "sigfhmi9cGMPp81JBBRMWKa1wGER5f5LMKXQdV6EjQEhen9ysEKrkx5uJRyk3dzvxHvjcrnBh3LeixbLbeeKR8hAH9wF2usC"
      },
      {
        "branch": "BLJdVust7SWKzShmbdV3TV3VZXsLynPS1rPKExjtcY4ReVTZTiv",
        "chain_id": "NetXdQprcVkpaWU",
        "contents": [
          {
            "kind": "endorsement",
            "level": 1222191,
            "metadata": {
              "balance_updates": [
                {
                  "change": "-64000000",
                  "contract": "tz1THsLcunLo8CmDm9f2y1xHuXttXZCpyFnq",
                  "kind": "contract"
                },
                {
                  "category": "deposits",
                  "change": "64000000",
                  "cycle": 298,
                  "delegate": "tz1THsLcunLo8CmDm9f2y1xHuXttXZCpyFnq",
                  "kind": "freezer"
                },
                {
                  "category": "rewards",
                  "change": "1250000",
                  "cycle": 298,
                  "delegate": "tz1THsLcunLo8CmDm9f2y1xHuXttXZCpyFnq",
                  "kind": "freezer"
                }
              ],
              "delegate": "tz1THsLcunLo8CmDm9f2y1xHuXttXZCpyFnq",
              "slots": [
                10
              ]
            }
          }
        ],
        "hash": "ooBaNpZmabkjJUSqquy7oHUfkJ8FjKuHbTMKDkFf543Wwtnrvcv",
        "protocol": "PsDELPH1Kxsxt8f9eWbxQeRxkjfbxoqM52jvs5Y5fBxWWh4ifpo",
        "signature": "sigNhpPDBc1RFf7vuHcVEmCGuxz3fB9ug3D5CVqG48iowxrNE3m5PnAMJNkqiw5kZHL39SxVdmJy25R1oQNDRVTLkuot8hja"
      },
      {
        "branch": "BLJdVust7SWKzShmbdV3TV3VZXsLynPS1rPKExjtcY4ReVTZTiv",
        "chain_id": "NetXdQprcVkpaWU",
        "contents": [
          {
            "kind": "endorsement",
            "level": 1222191,
            "metadata": {
              "balance_updates": [
                {
                  "change": "-64000000",
                  "contract": "tz1Z2jXfEXL7dXhs6bsLmyLFLfmAkXBzA9WE",
                  "kind": "contract"
                },
                {
                  "category": "deposits",
                  "change": "64000000",
                  "cycle": 298,
                  "delegate": "tz1Z2jXfEXL7dXhs6bsLmyLFLfmAkXBzA9WE",
                  "kind": "freezer"
                },
                {
                  "category": "rewards",
                  "change": "1250000",
                  "cycle": 298,
                  "delegate": "tz1Z2jXfEXL7dXhs6bsLmyLFLfmAkXBzA9WE",
                  "kind": "freezer"
                }
              ],
              "delegate": "tz1Z2jXfEXL7dXhs6bsLmyLFLfmAkXBzA9WE",
              "slots": [
                4
              ]
            }
          }
        ],
        "hash": "op3fcXD1HncFJbhzCttVo9EF39V9m5EtpMYjTicvWL8gXEXZw4X",
        "protocol": "PsDELPH1Kxsxt8f9eWbxQeRxkjfbxoqM52jvs5Y5fBxWWh4ifpo",
        "signature": "sigrSY9BN5boA1EgnyWiiWy8FGS1PjtgBjLNs3SykzbwijjdbppPoy2F9izEPk9nx9NuX5nBsSK1SFPYT2YmGeEMA7jz1FH9"
      },
      {
        "branch": "BLJdVust7SWKzShmbdV3TV3VZXsLynPS1rPKExjtcY4ReVTZTiv",
        "chain_id": "NetXdQprcVkpaWU",
        "contents": [
          {
            "kind": "endorsement",
            "level": 1222191,
            "metadata": {
              "balance_updates": [
                {
                  "change": "-64000000",
                  "contract": "tz3bTdwZinP8U1JmSweNzVKhmwafqWmFWRfk",
                  "kind": "contract"
                },
                {
                  "category": "deposits",
                  "change": "64000000",
                  "cycle": 298,
                  "delegate": "tz3bTdwZinP8U1JmSweNzVKhmwafqWmFWRfk",
                  "kind": "freezer"
                },
                {
                  "category": "rewards",
                  "change": "1250000",
                  "cycle": 298,
                  "delegate": "tz3bTdwZinP8U1JmSweNzVKhmwafqWmFWRfk",
                  "kind": "freezer"
                }
              ],
              "delegate": "tz3bTdwZinP8U1JmSweNzVKhmwafqWmFWRfk",
              "slots": [
                16
              ]
            }
          }
        ],
        "hash": "ooQif5nXQvyPkeAX8YjtRWF71gQizqWSU3mCUtEnnF8UU9oeX42",
        "protocol": "PsDELPH1Kxsxt8f9eWbxQeRxkjfbxoqM52jvs5Y5fBxWWh4ifpo",
        "signature": "sigi8myXJ6Nzda7hTDZW3eTnczZ9Gw2uNcx95QGipE4aVc1tRPxy9nFmiSqmg9iv8HQt93cisHczjYmggDrKTxY7XDePWTVu"
      },
      {
        "branch": "BLJdVust7SWKzShmbdV3TV3VZXsLynPS1rPKExjtcY4ReVTZTiv",
        "chain_id": "NetXdQprcVkpaWU",
        "contents": [
          {
            "kind": "endorsement",
            "level": 1222191,
            "metadata": {
              "balance_updates": [
                {
                  "change": "-192000000",
                  "contract": "tz3bvNMQ95vfAYtG8193ymshqjSvmxiCUuR5",
                  "kind": "contract"
                },
                {
                  "category": "deposits",
                  "change": "192000000",
                  "cycle": 298,
                  "delegate": "tz3bvNMQ95vfAYtG8193ymshqjSvmxiCUuR5",
                  "kind": "freezer"
                },
                {
                  "category": "rewards",
                  "change": "3750000",
                  "cycle": 298,
                  "delegate": "tz3bvNMQ95vfAYtG8193ymshqjSvmxiCUuR5",
                  "kind": "freezer"
                }
              ],
              "delegate": "tz3bvNMQ95vfAYtG8193ymshqjSvmxiCUuR5",
              "slots": [
                27,
                18,
                17
              ]
            }
          }
        ],
        "hash": "oo6u5ti2GnWqPNm4QvFFkYmYzvLTTbALYiYXyDuu9j6oXdxs635",
        "protocol": "PsDELPH1Kxsxt8f9eWbxQeRxkjfbxoqM52jvs5Y5fBxWWh4ifpo",
        "signature": "sigg3sY8fcte4zw7rH415nvLU5Hu2Wzi9jmTFJd4C4c6AHrfvyVP97rJarhSqPBVWSTPkff3UEM3Kpr83kTWf9zh6iGtXHxb"
      },
      {
        "branch": "BLJdVust7SWKzShmbdV3TV3VZXsLynPS1rPKExjtcY4ReVTZTiv",
        "chain_id": "NetXdQprcVkpaWU",
        "contents": [
          {
            "kind": "endorsement",
            "level": 1222191,
            "metadata": {
              "balance_updates": [
                {
                  "change": "-64000000",
                  "contract": "tz3VEZ4k6a4Wx42iyev6i2aVAptTRLEAivNN",
                  "kind": "contract"
                },
                {
                  "category": "deposits",
                  "change": "64000000",
                  "cycle": 298,
                  "delegate": "tz3VEZ4k6a4Wx42iyev6i2aVAptTRLEAivNN",
                  "kind": "freezer"
                },
                {
                  "category": "rewards",
                  "change": "1250000",
                  "cycle": 298,
                  "delegate": "tz3VEZ4k6a4Wx42iyev6i2aVAptTRLEAivNN",
                  "kind": "freezer"
                }
              ],
              "delegate": "tz3VEZ4k6a4Wx42iyev6i2aVAptTRLEAivNN",
              "slots": [
                8
              ]
            }
          }
        ],
        "hash": "opW4bYyij9Q5pZn56ga7wAAGuDi8rUNaqD6ehuuziEzgt6WF7qo",
        "protocol": "PsDELPH1Kxsxt8f9eWbxQeRxkjfbxoqM52jvs5Y5fBxWWh4ifpo",
        "signature": "sighG4swTLKBNwTnkNSCJCMWUfj3oAY8g6DoyXK4j3Nh231rFgmJGRb23dAW5xzYc16pTKruMHk7qoQDPLBZRz3TnRNiAuo3"
      },
      {
        "branch": "BLJdVust7SWKzShmbdV3TV3VZXsLynPS1rPKExjtcY4ReVTZTiv",
        "chain_id": "NetXdQprcVkpaWU",
        "contents": [
          {
            "kind": "endorsement",
            "level": 1222191,
            "metadata": {
              "balance_updates": [
                {
                  "change": "-128000000",
                  "contract": "tz3WMqdzXqRWXwyvj5Hp2H7QEepaUuS7vd9K",
                  "kind": "contract"
                },
                {
                  "category": "deposits",
                  "change": "128000000",
                  "cycle": 298,
                  "delegate": "tz3WMqdzXqRWXwyvj5Hp2H7QEepaUuS7vd9K",
                  "kind": "freezer"
                },
                {
                  "category": "rewards",
                  "change": "2500000",
                  "cycle": 298,
                  "delegate": "tz3WMqdzXqRWXwyvj5Hp2H7QEepaUuS7vd9K",
                  "kind": "freezer"
                }
              ],
              "delegate": "tz3WMqdzXqRWXwyvj5Hp2H7QEepaUuS7vd9K",
              "slots": [
                24,
                5
              ]
            }
          }
        ],
        "hash": "onj6Df3YgdBgW5fEyJMEEpP4cPtokKgWLEvy3nynryM7aKLxYyM",
        "protocol": "PsDELPH1Kxsxt8f9eWbxQeRxkjfbxoqM52jvs5Y5fBxWWh4ifpo",
        "signature": "sigpoS49FSZb5K26uKeY5VKCcDFPR1gBgqZFm8fBGxGPD33AJH8L2BPrGaPfEPwVdGtCEoo58CTcFUNEgQvBCo9t7MmMHXYW"
      },
      {
        "branch": "BLJdVust7SWKzShmbdV3TV3VZXsLynPS1rPKExjtcY4ReVTZTiv",
        "chain_id": "NetXdQprcVkpaWU",
        "contents": [
          {
            "kind": "endorsement",
            "level": 1222191,
            "metadata": {
              "balance_updates": [
                {
                  "change": "-192000000",
                  "contract": "tz1S8MNvuFEUsWgjHvi3AxibRBf388NhT1q2",
                  "kind": "contract"
                },
                {
                  "category": "deposits",
                  "change": "192000000",
                  "cycle": 298,
                  "delegate": "tz1S8MNvuFEUsWgjHvi3AxibRBf388NhT1q2",
                  "kind": "freezer"
                },
                {
                  "category": "rewards",
                  "change": "3750000",
                  "cycle": 298,
                  "delegate": "tz1S8MNvuFEUsWgjHvi3AxibRBf388NhT1q2",
                  "kind": "freezer"
                }
              ],
              "delegate": "tz1S8MNvuFEUsWgjHvi3AxibRBf388NhT1q2",
              "slots": [
                28,
                20,
                0
              ]
            }
          }
        ],
        "hash": "ooDZbBVXmRDhrDmeMNWL7Kz5Ereb5srNy9myiiM8mLXh22tbvPW",
        "protocol": "PsDELPH1Kxsxt8f9eWbxQeRxkjfbxoqM52jvs5Y5fBxWWh4ifpo",
        "signature": "sigb2mq6bxYgmdKFbLtH55Rs84JgBmZWUfpdpAoKLDw5Kh66Wafnqr8fyuJbaTW55GpEhNGAVM9kWrnxmr76956pXMqMkFb1"
      },
      {
        "branch": "BLJdVust7SWKzShmbdV3TV3VZXsLynPS1rPKExjtcY4ReVTZTiv",
        "chain_id": "NetXdQprcVkpaWU",
        "contents": [
          {
            "kind": "endorsement",
            "level": 1222191,
            "metadata": {
              "balance_updates": [
                {
                  "change": "-64000000",
                  "contract": "tz1NortRftucvAkD1J58L32EhSVrQEWJCEnB",
                  "kind": "contract"
                },
                {
                  "category": "deposits",
                  "change": "64000000",
                  "cycle": 298,
                  "delegate": "tz1NortRftucvAkD1J58L32EhSVrQEWJCEnB",
                  "kind": "freezer"
                },
                {
                  "category": "rewards",
                  "change": "1250000",
                  "cycle": 298,
                  "delegate": "tz1NortRftucvAkD1J58L32EhSVrQEWJCEnB",
                  "kind": "freezer"
                }
              ],
              "delegate": "tz1NortRftucvAkD1J58L32EhSVrQEWJCEnB",
              "slots": [
                2
              ]
            }
          }
        ],
        "hash": "ooghv6fy8XDhW6DUv51AEBNEYdPSkg8e28uPGpVAd4LnxNGALjP",
        "protocol": "PsDELPH1Kxsxt8f9eWbxQeRxkjfbxoqM52jvs5Y5fBxWWh4ifpo",
        "signature": "sigmy2FDF2RFg3VpVrzQdGcLKripxoGNYQGKxb5M81EZGaNB5yvTRDXtnPnuqrPqA3bFFfLAF9VfgfiW1X5Y4W9Y1X5b8baT"
      },
      {
        "branch": "BLJdVust7SWKzShmbdV3TV3VZXsLynPS1rPKExjtcY4ReVTZTiv",
        "chain_id": "NetXdQprcVkpaWU",
        "contents": [
          {
            "kind": "endorsement",
            "level": 1222191,
            "metadata": {
              "balance_updates": [
                {
                  "change": "-128000000",
                  "contract": "tz1SYq214SCBy9naR6cvycQsYcUGpBqQAE8d",
                  "kind": "contract"
                },
                {
                  "category": "deposits",
                  "change": "128000000",
                  "cycle": 298,
                  "delegate": "tz1SYq214SCBy9naR6cvycQsYcUGpBqQAE8d",
                  "kind": "freezer"
                },
                {
                  "category": "rewards",
                  "change": "2500000",
                  "cycle": 298,
                  "delegate": "tz1SYq214SCBy9naR6cvycQsYcUGpBqQAE8d",
                  "kind": "freezer"
                }
              ],
              "delegate": "tz1SYq214SCBy9naR6cvycQsYcUGpBqQAE8d",
              "slots": [
                30,
                15
              ]
            }
          }
        ],
        "hash": "ooWgZEw9dxdTmb4T7jzn8cxR8oGCt7hW23NE4Bq6djRAytsYGFf",
        "protocol": "PsDELPH1Kxsxt8f9eWbxQeRxkjfbxoqM52jvs5Y5fBxWWh4ifpo",
        "signature": "sigXe76hbKc5zpVHRYdAzqVzjwdLftGBNA2uhNVrW4PBGWQJ2oZqCJp6omWyCGqzKWWi8MhjHNawrUE6owZjQTdvHNxXrHu3"
      },
      {
        "branch": "BLJdVust7SWKzShmbdV3TV3VZXsLynPS1rPKExjtcY4ReVTZTiv",
        "chain_id": "NetXdQprcVkpaWU",
        "contents": [
          {
            "kind": "endorsement",
            "level": 1222191,
            "metadata": {
              "balance_updates": [
                {
                  "change": "-64000000",
                  "contract": "tz1g8vkmcde6sWKaG2NN9WKzCkDM6Rziq194",
                  "kind": "contract"
                },
                {
                  "category": "deposits",
                  "change": "64000000",
                  "cycle": 298,
                  "delegate": "tz1g8vkmcde6sWKaG2NN9WKzCkDM6Rziq194",
                  "kind": "freezer"
                },
                {
                  "category": "rewards",
                  "change": "1250000",
                  "cycle": 298,
                  "delegate": "tz1g8vkmcde6sWKaG2NN9WKzCkDM6Rziq194",
                  "kind": "freezer"
                }
              ],
              "delegate": "tz1g8vkmcde6sWKaG2NN9WKzCkDM6Rziq194",
              "slots": [
                3
              ]
            }
          }
        ],
        "hash": "ong4EoCQe2jEa6RWwKCg2yccF3dcA3t7j9PTPV54tbevNUmuhA8",
        "protocol": "PsDELPH1Kxsxt8f9eWbxQeRxkjfbxoqM52jvs5Y5fBxWWh4ifpo",
        "signature": "sigemkrp317HXxR62eW37gvXgTs3xhRTVHUTA3xrgcGBQpNmhdrwdhBeBNK6RCoSduf5YETH8p3qwfj8sd92mwicJu1wqyGj"
      }
    ],
    [],
    [],
    [
      {
        "branch": "BLJdVust7SWKzShmbdV3TV3VZXsLynPS1rPKExjtcY4ReVTZTiv",
        "chain_id": "NetXdQprcVkpaWU",
        "contents": [
          {
            "amount": "700000000",
            "counter": "4169723",
            "destination": "tz1TUrRu5QoWrdJZp5kqc2d6rkprhkNJzETq",
            "fee": "2840",
            "gas_limit": "10600",
            "kind": "transaction",
            "metadata": {
              "balance_updates": [
                {
                  "change": "-2840",
                  "contract": "tz1eZhbrSz4jF94ByV7mcEA472CbWUVyG1jU",
                  "kind": "contract"
                },
                {
                  "category": "fees",
                  "change": "2840",
                  "cycle": 298,
                  "delegate": "tz3NExpXn9aPNZPorRE4SdjJ2RGrfbJgMAaV",
                  "kind": "freezer"
                }
              ],
              "operation_result": {
                "allocated_destination_contract": true,
                "balance_updates": [
                  {
                    "change": "-700000000",
                    "contract": "tz1eZhbrSz4jF94ByV7mcEA472CbWUVyG1jU",
                    "kind": "contract"
                  },
                  {
                    "change": "700000000",
                    "contract": "tz1TUrRu5QoWrdJZp5kqc2d6rkprhkNJzETq",
                    "kind": "contract"
                  },
                  {
                    "change": "-64250",
                    "contract": "tz1eZhbrSz4jF94ByV7mcEA472CbWUVyG1jU",
                    "kind": "contract"
                  }
                ],
                "consumed_gas": "1427",
                "consumed_milligas": "1427000",
                "status": "applied"
              }
            },
            "source": "tz1eZhbrSz4jF94ByV7mcEA472CbWUVyG1jU",
            "storage_limit": "300"
          }
        ],
        "hash": "ooJhBGFB2vRhEKz73GdSN1mbjsUVyV9KLVRnZ6DfZBRMcvKZm2Q",
        "protocol": "PsDELPH1Kxsxt8f9eWbxQeRxkjfbxoqM52jvs5Y5fBxWWh4ifpo",
        "signature": "sigfDC8Pv7RTJRY2gdBJut1dA7A2FuqLPkcb2G2LWHmkWts4sq7h6qHUDSZJVTPk8Q7xXdDBETrDXeAqBDM95rST5wymYSkT"
      },
      {
        "branch": "BM2NB157N462B5rebgTWhwV6yWY8Gtuz21RMuo4SsxDwzXvvHft",
        "chain_id": "NetXdQprcVkpaWU",
        "contents": [
          {
            "amount": "0",
            "counter": "5927124",
            "destination": "KT19kgnqC5VWoxktLRdRUERbyUPku9YioE8W",
            "fee": "824",
            "gas_limit": "5104",
            "kind": "transaction",
            "metadata": {
              "balance_updates": [
                {
                  "change": "-824",
                  "contract": "tz1c5wM9826YcUNQ8a17z9eUYpKQ3oW3zfmJ",
                  "kind": "contract"
                },
                {
                  "category": "fees",
                  "change": "824",
                  "cycle": 298,
                  "delegate": "tz3NExpXn9aPNZPorRE4SdjJ2RGrfbJgMAaV",
                  "kind": "freezer"
                }
              ],
              "operation_result": {
                "consumed_gas": "4904",
                "consumed_milligas": "4903559",
                "status": "applied",
                "storage": {
                  "args": [
                    {
                      "args": [
                        {
                          "int": "1605789540"
                        },
                        {
                          "args": [
                            {
                              "int": "208"
                            },
                            {
                              "args": [
                                {
                                  "int": "91"
                                },
                                {
                                  "int": "189"
                                }
                              ],
                              "prim": "Pair"
                            }
                          ],
                          "prim": "Pair"
                        }
                      ],
                      "prim": "Pair"
                    },
                    {
                      "bytes": "0000b4685dc0a9a5cc28942065288413ce5bea2f76a0"
                    }
                  ],
                  "prim": "Pair"
                },
                "storage_size": "621"
              }
            },
            "parameters": {
              "entrypoint": "update_value",
              "value": {
                "args": [
                  {
                    "string": "2020-11-19T12:39:00Z"
                  },
                  {
                    "args": [
                      {
                        "int": "208"
                      },
                      {
                        "args": [
                          {
                            "int": "91"
                          },
                          {
                            "int": "189"
                          }
                        ],
                        "prim": "Pair"
                      }
                    ],
                    "prim": "Pair"
                  }
                ],
                "prim": "Pair"
              }
            },
            "source": "tz1c5wM9826YcUNQ8a17z9eUYpKQ3oW3zfmJ",
            "storage_limit": "0"
          }
        ],
        "hash": "opY4Mz1NSuBRzRGPmQFgXs6vPT6k9goSaqG2APT7tKioj6pYtHN",
        "protocol": "PsDELPH1Kxsxt8f9eWbxQeRxkjfbxoqM52jvs5Y5fBxWWh4ifpo",
        "signature": "sigkDJ3qgGD6pw9KH3xjgR1dkf9vNw5vWk2dXVYm7mdxc9U9383Q2rixhFpJzF8h5rvoBGTBACrGFWYdjxxZRGdFxDieE6vW"
      }
    ]
  ],
  "protocol": "PsDELPH1Kxsxt8f9eWbxQeRxkjfbxoqM52jvs5Y5fBxWWh4ifpo"
}
